{
  "__elements": {},
  "__inputs": [
    {
      "description": "",
      "label": "Prometheus",
      "name": "DS_PROMETHEUS",
      "pluginId": "prometheus",
      "pluginName": "Prometheus",
      "type": "datasource"
    }
  ],
  "__requires": [
    {
      "id": "bargauge",
      "name": "Bar gauge",
      "type": "panel",
      "version": ""
    },
    {
      "id": "gauge",
      "name": "Gauge",
      "type": "panel",
      "version": ""
    },
    {
      "id": "grafana",
      "name": "Grafana",
      "type": "grafana",
      "version": "9.3.2"
    },
    {
      "id": "prometheus",
      "name": "Prometheus",
      "type": "datasource",
      "version": "1.0.0"
    },
    {
      "id": "stat",
      "name": "Stat",
      "type": "panel",
      "version": ""
    },
    {
      "id": "table",
      "name": "Table",
      "type": "panel",
      "version": ""
    },
    {
      "id": "timeseries",
      "name": "Time series",
      "type": "panel",
      "version": ""
    }
  ],
  "annotations": {
    "list": [
      {
        "$$hashKey": "object:215",
        "builtIn": 1,
        "datasource": {
          "type": "datasource",
          "uid": "grafana"
        },
        "enable": true,
        "hide": true,
        "iconColor": "rgba(0, 211, 255, 1)",
        "limit": 100,
        "name": "Annotations & Alerts",
        "showIn": 0,
        "target": {
          "limit": 100,
          "matchAny": false,
          "tags": [],
          "type": "dashboard"
        },
        "type": "dashboard"
      }
    ]
  },
  "description": "Proxmox Virtual Environment Dashboard",
  "editable": true,
  "fiscalYearStartMonth": 0,
  "gnetId": 10347,
  "graphTooltip": 0,
  "id": null,
  "links": [],
  "liveNow": false,
  "panels": [
    {
      "datasource": {
        "type": "prometheus",
        "uid": ""
      },
      "description": "",
      "fieldConfig": {
        "defaults": {
          "color": {
            "mode": "thresholds"
          },
          "custom": {
            "align": "auto",
            "displayMode": "auto",
            "inspect": false
          },
          "mappings": [],
          "thresholds": {
            "mode": "absolute",
            "steps": [
              {
                "color": "green",
                "value": null
              }
            ]
          }
        },
        "overrides": [
          {
            "matcher": {
              "id": "byName",
              "options": "Status"
            },
            "properties": [
              {
                "id": "mappings",
                "value": [
                  {
                    "options": {
                      "0": {
                        "color": "red",
                        "index": 1,
                        "text": "stopped"
                      },
                      "1": {
                        "color": "green",
                        "index": 0,
                        "text": "running"
                      }
                    },
                    "type": "value"
                  }
                ]
              },
              {
                "id": "custom.displayMode",
                "value": "color-text"
              },
              {
                "id": "custom.width",
                "value": 73
              }
            ]
          },
          {
            "matcher": {
              "id": "byName",
              "options": "Memory"
            },
            "properties": [
              {
                "id": "unit",
                "value": "bytes"
              },
              {
                "id": "custom.width",
                "value": 100
              }
            ]
          },
          {
            "matcher": {
              "id": "byName",
              "options": "Disk"
            },
            "properties": [
              {
                "id": "unit",
                "value": "bytes"
              },
              {
                "id": "custom.width",
                "value": 82
              }
            ]
          },
          {
            "matcher": {
              "id": "byName",
              "options": "Memory usage (%)"
            },
            "properties": [
              {
                "id": "unit",
                "value": "percentunit"
              },
              {
                "id": "custom.displayMode",
                "value": "color-text"
              },
              {
                "id": "mappings",
                "value": [
                  {
                    "options": {
                      "from": 0,
                      "result": {
                        "color": "green",
                        "index": 0
                      },
                      "to": 0.75
                    },
                    "type": "range"
                  },
                  {
                    "options": {
                      "from": 0.75,
                      "result": {
                        "color": "orange",
                        "index": 1
                      },
                      "to": 0.9
                    },
                    "type": "range"
                  },
                  {
                    "options": {
                      "from": 0.9,
                      "result": {
                        "color": "dark-red",
                        "index": 2
                      },
                      "to": 2
                    },
                    "type": "range"
                  },
                  {
                    "options": {
                      "match": "null",
                      "result": {
                        "color": "#808080",
                        "index": 3,
                        "text": "n/a"
                      }
                    },
                    "type": "special"
                  }
                ]
              },
              {
                "id": "custom.width",
                "value": 143
              }
            ]
          },
          {
            "matcher": {
              "id": "byName",
              "options": "Disk usage (%)"
            },
            "properties": [
              {
                "id": "mappings",
                "value": [
                  {
                    "options": {
                      "from": 0,
                      "result": {
                        "color": "green",
                        "index": 0
                      },
                      "to": 0.7
                    },
                    "type": "range"
                  },
                  {
                    "options": {
                      "from": 0.7,
                      "result": {
                        "color": "orange",
                        "index": 1
                      },
                      "to": 0.9
                    },
                    "type": "range"
                  },
                  {
                    "options": {
                      "from": 0.9,
                      "result": {
                        "color": "red",
                        "index": 2
                      },
                      "to": 2
                    },
                    "type": "range"
                  },
                  {
                    "options": {
                      "match": "null",
                      "result": {
                        "color": "#808080",
                        "index": 3,
                        "text": "n/a"
                      }
                    },
                    "type": "special"
                  }
                ]
              },
              {
                "id": "custom.displayMode",
                "value": "color-text"
              },
              {
                "id": "custom.width",
                "value": 120
              },
              {
                "id": "unit",
                "value": "percentunit"
              }
            ]
          },
          {
            "matcher": {
              "id": "byName",
              "options": "vCPUs"
            },
            "properties": [
              {
                "id": "custom.width",
                "value": 66
              }
            ]
          },
          {
            "matcher": {
              "id": "byName",
              "options": "Type"
            },
            "properties": [
              {
                "id": "custom.width",
                "value": 67
              }
            ]
          },
          {
            "matcher": {
              "id": "byName",
              "options": "ID"
            },
            "properties": [
              {
                "id": "custom.width",
                "value": 106
              }
            ]
          }
        ]
      },
      "gridPos": {
        "h": 14,
        "w": 14,
        "x": 0,
        "y": 0
      },
      "id": 19,
      "options": {
        "footer": {
          "fields": "",
          "reducer": [
            "sum"
          ],
          "show": false
        },
        "frameIndex": 0,
        "showHeader": true,
        "sortBy": [
          {
            "desc": false,
            "displayName": "ID"
          }
        ]
      },
      "pluginVersion": "9.3.2",
      "targets": [
        {
          "datasource": {
            "type": "prometheus",
            "uid": ""
          },
          "editorMode": "code",
          "exemplar": false,
          "expr": "sum by (id, name, type) (pve_guest_info{instance=\"$instance\"})",
          "format": "table",
          "instant": true,
          "interval": "",
          "legendFormat": "",
          "range": false,
          "refId": "id, name and type"
        },
        {
          "datasource": {
            "type": "prometheus",
            "uid": ""
          },
          "editorMode": "code",
          "exemplar": false,
          "expr": "sum by (id) (pve_up{instance=\"$instance\"} and on (id, instance) pve_guest_info)",
          "format": "table",
          "hide": false,
          "instant": true,
          "legendFormat": "",
          "range": false,
          "refId": "status"
        },
        {
          "datasource": {
            "type": "prometheus",
            "uid": ""
          },
          "editorMode": "code",
          "exemplar": false,
          "expr": "sum by (id) (pve_cpu_usage_limit{instance=\"$instance\"} and on (id, instance) pve_guest_info)",
          "format": "table",
          "hide": false,
          "instant": true,
          "legendFormat": "",
          "range": false,
          "refId": "vcpus"
        },
        {
          "datasource": {
            "type": "prometheus",
            "uid": ""
          },
          "editorMode": "code",
          "exemplar": false,
          "expr": "sum by (id) (pve_memory_size_bytes{instance=\"$instance\"} and on (id, instance) pve_guest_info)",
          "format": "table",
          "hide": false,
          "instant": true,
          "legendFormat": "",
          "range": false,
          "refId": "memsize"
        },
        {
          "datasource": {
            "type": "prometheus",
            "uid": ""
          },
          "editorMode": "code",
          "exemplar": false,
          "expr": "sum by (id) (pve_memory_usage_bytes{instance=\"$instance\",template!=\"1\"} / pve_memory_size_bytes and on (id, instance) pve_guest_info and on (id) pve_up==1)",
          "format": "table",
          "hide": false,
          "instant": true,
          "legendFormat": "",
          "range": false,
          "refId": "memusg_percent"
        },
        {
          "datasource": {
            "type": "prometheus",
            "uid": ""
          },
          "editorMode": "code",
          "exemplar": false,
          "expr": "sum by (id) (pve_disk_size_bytes{instance=\"$instance\"} and on (id, instance) pve_guest_info)",
          "format": "table",
          "hide": false,
          "instant": true,
          "legendFormat": "",
          "range": false,
          "refId": "disksize"
        },
        {
          "datasource": {
            "type": "prometheus",
            "uid": ""
          },
          "editorMode": "code",
          "exemplar": false,
          "expr": "sum by (id) (pve_disk_usage_bytes{instance=\"$instance\"} / pve_disk_size_bytes and on (id, instance) pve_guest_info{type=\"lxc\"})",
          "format": "table",
          "hide": false,
          "instant": true,
          "legendFormat": "",
          "range": false,
          "refId": "diskusg_percent"
        }
      ],
      "title": "Resource allocation summary",
      "transformations": [
        {
          "id": "joinByField",
          "options": {
            "byField": "id",
            "mode": "outer"
          }
        },
        {
          "id": "organize",
          "options": {
            "excludeByName": {
              "Time 1": true,
              "Time 2": true,
              "Time 3": true,
              "Time 4": true,
              "Time 5": true,
              "Time 6": true,
              "Time 7": true,
              "Value #id, name and type": true
            },
            "indexByName": {},
            "renameByName": {
              "Time 5": "",
              "Value #disksize": "Disk",
              "Value #diskusg_percent": "Disk usage (%)",
              "Value #id, name and type": "",
              "Value #memsize": "Memory",
              "Value #memusg_percent": "Memory usage (%)",
              "Value #status": "Status",
              "Value #vcpus": "vCPUs",
              "id": "ID",
              "name": "Name",
              "type": "Type"
            }
          }
        }
      ],
      "type": "table"
    },
    {
      "datasource": {
        "type": "prometheus",
        "uid": ""
      },
      "fieldConfig": {
        "defaults": {
          "color": {
            "mode": "thresholds"
          },
          "custom": {
            "axisCenteredZero": false,
            "axisColorMode": "text",
            "axisLabel": "",
            "axisPlacement": "auto",
            "barAlignment": 0,
            "drawStyle": "line",
            "fillOpacity": 0,
            "gradientMode": "scheme",
            "hideFrom": {
              "legend": false,
              "tooltip": false,
              "viz": false
            },
            "lineInterpolation": "linear",
            "lineWidth": 2,
            "pointSize": 5,
            "scaleDistribution": {
              "type": "linear"
            },
            "showPoints": "auto",
            "spanNulls": false,
            "stacking": {
              "group": "A",
              "mode": "none"
            },
            "thresholdsStyle": {
              "mode": "area"
            }
          },
          "mappings": [],
          "min": 0,
          "thresholds": {
            "mode": "percentage",
            "steps": [
              {
                "color": "green",
                "value": null
              },
              {
                "color": "orange",
                "value": 70
              },
              {
                "color": "red",
                "value": 90
              }
            ]
          }
        },
        "overrides": []
      },
      "gridPos": {
        "h": 7,
        "w": 7,
        "x": 14,
        "y": 0
      },
      "id": 23,
      "options": {
        "legend": {
          "calcs": [],
          "displayMode": "list",
          "placement": "bottom",
          "showLegend": false
        },
        "tooltip": {
          "mode": "single",
          "sort": "none"
        }
      },
      "targets": [
        {
          "datasource": {
            "type": "prometheus",
            "uid": ""
          },
          "editorMode": "code",
          "expr": "pve_cpu_usage_ratio{instance=\"$instance\"} and on(id) pve_node_info",
          "legendFormat": "__auto",
          "range": true,
          "refId": "usage"
        },
        {
          "datasource": {
            "type": "prometheus",
            "uid": ""
          },
          "editorMode": "code",
          "exemplar": false,
          "expr": "pve_cpu_usage_limit{instance=\"$instance\"} and on(id) pve_node_info",
          "format": "table",
          "hide": false,
          "instant": true,
          "legendFormat": "__auto",
          "range": false,
          "refId": "total"
        }
      ],
      "title": "CPU history",
      "transformations": [
        {
          "id": "configFromData",
          "options": {
            "configRefId": "total",
            "mappings": [
              {
                "fieldName": "Value",
                "handlerKey": "max"
              }
            ]
          }
        }
      ],
      "type": "timeseries"
    },
    {
      "datasource": {
        "type": "prometheus",
        "uid": ""
      },
      "description": "",
      "fieldConfig": {
        "defaults": {
          "color": {
            "mode": "thresholds"
          },
          "decimals": 2,
          "mappings": [
            {
              "options": {
                "match": "null",
                "result": {
                  "text": "N/A"
                }
              },
              "type": "special"
            }
          ],
          "max": 1,
          "min": 0,
          "thresholds": {
            "mode": "absolute",
            "steps": [
              {
                "color": "#299c46",
                "value": null
              },
              {
                "color": "rgba(237, 129, 40, 0.89)",
                "value": 0.7
              },
              {
                "color": "#d44a3a",
                "value": 0.9
              }
            ]
          },
          "unit": "percentunit"
        },
        "overrides": []
      },
      "gridPos": {
        "h": 5,
        "w": 3,
        "x": 21,
        "y": 0
      },
      "id": 7,
      "interval": "",
      "links": [],
      "maxDataPoints": 100,
      "options": {
        "orientation": "horizontal",
        "reduceOptions": {
          "calcs": [
            "lastNotNull"
          ],
          "fields": "",
          "values": false
        },
        "showThresholdLabels": false,
        "showThresholdMarkers": true,
        "text": {}
      },
      "pluginVersion": "9.3.2",
      "targets": [
        {
          "datasource": {
            "type": "prometheus",
            "uid": ""
          },
          "expr": "pve_cpu_usage_ratio{instance=\"$instance\"} / pve_cpu_usage_limit and on(id) pve_node_info",
          "format": "time_series",
          "intervalFactor": 1,
          "legendFormat": "",
          "refId": "A"
        }
      ],
      "title": "Current CPU",
      "type": "gauge"
    },
    {
      "datasource": {
        "type": "prometheus",
        "uid": ""
      },
      "fieldConfig": {
        "defaults": {
          "color": {
            "fixedColor": "text",
            "mode": "fixed"
          },
          "mappings": [],
          "thresholds": {
            "mode": "absolute",
            "steps": [
              {
                "color": "green",
                "value": null
              },
              {
                "color": "red",
                "value": 80
              }
            ]
          }
        },
        "overrides": [
          {
            "matcher": {
              "id": "byName",
              "options": "Value"
            },
            "properties": [
              {
                "id": "displayName",
                "value": "CPUs"
              }
            ]
          }
        ]
      },
      "gridPos": {
        "h": 2,
        "w": 3,
        "x": 21,
        "y": 5
      },
      "id": 22,
      "options": {
        "colorMode": "value",
        "graphMode": "none",
        "justifyMode": "auto",
        "orientation": "auto",
        "reduceOptions": {
          "calcs": [
            "lastNotNull"
          ],
          "fields": "",
          "values": false
        },
        "textMode": "value_and_name"
      },
      "pluginVersion": "9.3.2",
      "targets": [
        {
          "datasource": {
            "type": "prometheus",
            "uid": ""
          },
          "editorMode": "code",
          "exemplar": false,
          "expr": "pve_cpu_usage_limit and on(id) pve_node_info",
          "format": "table",
          "instant": true,
          "legendFormat": "__auto",
          "range": false,
          "refId": "A"
        }
      ],
      "type": "stat"
    },
    {
      "datasource": {
        "type": "prometheus",
        "uid": ""
      },
      "fieldConfig": {
        "defaults": {
          "color": {
            "mode": "thresholds"
          },
          "custom": {
            "axisCenteredZero": false,
            "axisColorMode": "text",
            "axisLabel": "",
            "axisPlacement": "auto",
            "barAlignment": 0,
            "drawStyle": "line",
            "fillOpacity": 0,
            "gradientMode": "scheme",
            "hideFrom": {
              "legend": false,
              "tooltip": false,
              "viz": false
            },
            "lineInterpolation": "linear",
            "lineWidth": 2,
            "pointSize": 5,
            "scaleDistribution": {
              "type": "linear"
            },
            "showPoints": "auto",
            "spanNulls": false,
            "stacking": {
              "group": "A",
              "mode": "none"
            },
            "thresholdsStyle": {
              "mode": "area"
            }
          },
          "mappings": [],
          "min": 0,
          "thresholds": {
            "mode": "percentage",
            "steps": [
              {
                "color": "green",
                "value": null
              },
              {
                "color": "orange",
                "value": 60
              },
              {
                "color": "red",
                "value": 90
              }
            ]
          },
          "unit": "bytes"
        },
        "overrides": []
      },
      "gridPos": {
        "h": 7,
        "w": 7,
        "x": 14,
        "y": 7
      },
      "id": 24,
      "options": {
        "legend": {
          "calcs": [],
          "displayMode": "list",
          "placement": "bottom",
          "showLegend": false
        },
        "tooltip": {
          "mode": "single",
          "sort": "none"
        }
      },
      "targets": [
        {
          "datasource": {
            "type": "prometheus",
            "uid": ""
          },
          "editorMode": "code",
          "expr": "pve_memory_usage_bytes{instance=\"$instance\"} and on(id) pve_node_info",
          "legendFormat": "__auto",
          "range": true,
          "refId": "usage"
        },
        {
          "datasource": {
            "type": "prometheus",
            "uid": ""
          },
          "editorMode": "code",
          "exemplar": false,
          "expr": "pve_memory_size_bytes{instance=\"$instance\"} and on(id) pve_node_info",
          "format": "table",
          "hide": false,
          "instant": true,
          "legendFormat": "__auto",
          "range": false,
          "refId": "total"
        }
      ],
      "title": "Memory history",
      "transformations": [
        {
          "id": "configFromData",
          "options": {
            "configRefId": "total",
            "mappings": [
              {
                "fieldName": "Value",
                "handlerKey": "max"
              }
            ]
          }
        }
      ],
      "type": "timeseries"
    },
    {
      "datasource": {
        "type": "prometheus",
        "uid": ""
      },
      "description": "",
      "fieldConfig": {
        "defaults": {
          "color": {
            "mode": "thresholds"
          },
          "decimals": 0,
          "mappings": [
            {
              "options": {
                "match": "null",
                "result": {
                  "text": "N/A"
                }
              },
              "type": "special"
            }
          ],
          "max": 1,
          "min": 0,
          "thresholds": {
            "mode": "absolute",
            "steps": [
              {
                "color": "#299c46",
                "value": null
              },
              {
                "color": "rgba(237, 129, 40, 0.89)",
                "value": 0.6
              },
              {
                "color": "#d44a3a",
                "value": 0.8
              }
            ]
          },
          "unit": "percentunit"
        },
        "overrides": []
      },
      "gridPos": {
        "h": 5,
        "w": 3,
        "x": 21,
        "y": 7
      },
      "id": 8,
      "links": [],
      "maxDataPoints": 100,
      "options": {
        "orientation": "horizontal",
        "reduceOptions": {
          "calcs": [
            "lastNotNull"
          ],
          "fields": "",
          "values": false
        },
        "showThresholdLabels": false,
        "showThresholdMarkers": true,
        "text": {}
      },
      "pluginVersion": "9.3.2",
      "targets": [
        {
          "datasource": {
            "type": "prometheus",
            "uid": ""
          },
          "expr": "pve_memory_usage_bytes{instance=\"$instance\"} / pve_memory_size_bytes and on(id) pve_node_info",
          "format": "time_series",
          "intervalFactor": 1,
          "legendFormat": "",
          "refId": "A"
        }
      ],
      "title": "Current memory",
      "type": "gauge"
    },
    {
      "datasource": {
        "type": "prometheus",
        "uid": ""
      },
      "description": "",
      "fieldConfig": {
        "defaults": {
          "color": {
            "mode": "thresholds"
          },
          "mappings": [],
          "min": 0,
          "thresholds": {
            "mode": "percentage",
            "steps": [
              {
                "color": "green",
                "value": null
              },
              {
                "color": "orange",
                "value": 60
              },
              {
                "color": "red",
                "value": 80
              }
            ]
          },
          "unit": "bytes"
        },
        "overrides": [
          {
            "matcher": {
              "id": "byName",
              "options": "Value #used"
            },
            "properties": [
              {
                "id": "displayName",
                "value": "used"
              }
            ]
          },
          {
            "matcher": {
              "id": "byName",
              "options": "Value #total"
            },
            "properties": [
              {
                "id": "displayName",
                "value": "total"
              },
              {
                "id": "color",
                "value": {
                  "fixedColor": "text",
                  "mode": "fixed"
                }
              }
            ]
          }
        ]
      },
      "gridPos": {
        "h": 2,
        "w": 3,
        "x": 21,
        "y": 12
      },
      "id": 20,
      "options": {
        "colorMode": "value",
        "graphMode": "none",
        "justifyMode": "auto",
        "orientation": "auto",
        "reduceOptions": {
          "calcs": [
            "lastNotNull"
          ],
          "fields": "",
          "values": false
        },
        "text": {
          "titleSize": 20
        },
        "textMode": "value_and_name"
      },
      "pluginVersion": "9.3.2",
      "targets": [
        {
          "datasource": {
            "type": "prometheus",
            "uid": ""
          },
          "editorMode": "code",
          "exemplar": false,
          "expr": "pve_memory_usage_bytes{instance=\"$instance\"} and on(id) pve_node_info",
          "format": "table",
          "instant": true,
          "legendFormat": "__auto",
          "range": false,
          "refId": "used"
        },
        {
          "datasource": {
            "type": "prometheus",
            "uid": ""
          },
          "editorMode": "code",
          "exemplar": false,
          "expr": "pve_memory_size_bytes{instance=\"$instance\"} and on(id) pve_node_info",
          "format": "table",
          "hide": false,
          "instant": true,
          "legendFormat": "__auto",
          "range": false,
          "refId": "total"
        },
        {
          "datasource": {
            "type": "prometheus",
            "uid": ""
          },
          "editorMode": "code",
          "exemplar": false,
          "expr": "pve_memory_size_bytes{instance=\"$instance\"} and on(id) pve_node_info",
          "format": "table",
          "hide": false,
          "instant": true,
          "legendFormat": "__auto",
          "range": false,
          "refId": "total_for_max"
        }
      ],
      "transformations": [
        {
          "id": "configFromData",
          "options": {
            "configRefId": "total_for_max",
            "mappings": [
              {
                "fieldName": "Value #total_for_max",
                "handlerKey": "max"
              }
            ]
          }
        }
      ],
      "type": "stat"
    },
    {
      "datasource": {
        "type": "prometheus",
        "uid": ""
      },
      "fieldConfig": {
        "defaults": {
          "color": {
            "mode": "palette-classic"
          },
          "custom": {
            "axisCenteredZero": false,
            "axisColorMode": "text",
            "axisLabel": "",
            "axisPlacement": "auto",
            "barAlignment": 0,
            "drawStyle": "line",
            "fillOpacity": 0,
            "gradientMode": "none",
            "hideFrom": {
              "legend": false,
              "tooltip": false,
              "viz": false
            },
            "lineInterpolation": "linear",
            "lineWidth": 2,
            "pointSize": 5,
            "scaleDistribution": {
              "type": "linear"
            },
            "showPoints": "never",
            "spanNulls": false,
            "stacking": {
              "group": "A",
              "mode": "none"
            },
            "thresholdsStyle": {
              "mode": "area"
            }
          },
          "decimals": 1,
          "links": [],
          "mappings": [],
          "max": 1,
          "min": 0,
          "thresholds": {
            "mode": "absolute",
            "steps": [
              {
                "color": "transparent",
                "value": null
              },
              {
                "color": "red",
                "value": 1
              }
            ]
          },
          "unit": "percentunit"
        },
        "overrides": []
      },
      "gridPos": {
        "h": 10,
        "w": 12,
        "x": 0,
        "y": 14
      },
      "id": 2,
      "links": [],
      "options": {
        "legend": {
          "calcs": [
            "max",
            "mean",
            "lastNotNull"
          ],
          "displayMode": "table",
          "placement": "right",
          "showLegend": true
        },
        "tooltip": {
          "mode": "multi",
          "sort": "asc"
        }
      },
      "pluginVersion": "9.3.2",
      "targets": [
        {
          "datasource": {
            "type": "prometheus",
            "uid": ""
          },
          "expr": "((pve_cpu_usage_ratio{instance=\"$instance\"} / pve_cpu_usage_limit) * on(id, instance) group_left(name, type) pve_guest_info) and on(id, instance) pve_up == 1",
          "format": "time_series",
          "interval": "",
          "intervalFactor": 4,
          "legendFormat": "{{name}} ({{type}})",
          "refId": "A"
        }
      ],
      "title": "Guests CPU usage",
      "type": "timeseries"
    },
    {
      "datasource": {
        "type": "prometheus",
        "uid": ""
      },
      "fieldConfig": {
        "defaults": {
          "color": {
            "mode": "palette-classic"
          },
          "custom": {
            "axisCenteredZero": false,
            "axisColorMode": "text",
            "axisLabel": "",
            "axisPlacement": "auto",
            "barAlignment": 0,
            "drawStyle": "line",
            "fillOpacity": 0,
            "gradientMode": "none",
            "hideFrom": {
              "legend": false,
              "tooltip": false,
              "viz": false
            },
            "lineInterpolation": "linear",
            "lineWidth": 2,
            "pointSize": 5,
            "scaleDistribution": {
              "type": "linear"
            },
            "showPoints": "never",
            "spanNulls": false,
            "stacking": {
              "group": "A",
              "mode": "none"
            },
            "thresholdsStyle": {
              "mode": "area"
            }
          },
          "decimals": 1,
          "links": [],
          "mappings": [],
          "max": 1.1,
          "min": 0,
          "thresholds": {
            "mode": "absolute",
            "steps": [
              {
                "color": "transparent",
                "value": null
              },
              {
                "color": "red",
                "value": 0.9
              }
            ]
          },
          "unit": "percentunit"
        },
        "overrides": []
      },
      "gridPos": {
        "h": 10,
        "w": 12,
        "x": 12,
        "y": 14
      },
      "id": 5,
      "links": [],
      "options": {
        "legend": {
          "calcs": [
            "max",
            "mean",
            "lastNotNull"
          ],
          "displayMode": "table",
          "placement": "right",
          "showLegend": true
        },
        "tooltip": {
          "mode": "multi",
          "sort": "desc"
        }
      },
      "pluginVersion": "9.3.2",
      "targets": [
        {
          "datasource": {
            "type": "prometheus",
            "uid": ""
          },
          "expr": "(pve_memory_usage_bytes{instance=\"$instance\"} / pve_memory_size_bytes * on(id, instance) group_left(name, type) pve_guest_info) and on(id, instance) pve_up == 1",
          "format": "time_series",
          "interval": "",
          "intervalFactor": 4,
          "legendFormat": "{{name}} ({{type}})",
          "refId": "A"
        }
      ],
      "title": "Guests memory usage",
      "type": "timeseries"
    },
    {
      "datasource": {
        "type": "prometheus",
        "uid": ""
      },
      "fieldConfig": {
        "defaults": {
          "color": {
            "mode": "thresholds"
          },
          "decimals": 1,
          "mappings": [
            {
              "from": "",
              "id": 1,
              "operator": "",
              "text": "",
              "to": "",
              "type": 1,
              "value": ""
            }
          ],
          "max": 1,
          "min": 0,
          "thresholds": {
            "mode": "absolute",
            "steps": [
              {
                "color": "green",
                "value": null
              },
              {
                "color": "yellow",
                "value": 0.75
              },
              {
                "color": "red",
                "value": 0.9
              }
            ]
          },
          "unit": "percentunit"
        },
        "overrides": []
      },
      "gridPos": {
        "h": 11,
        "w": 3,
        "x": 0,
        "y": 24
      },
      "id": 11,
      "links": [],
      "options": {
        "orientation": "auto",
        "reduceOptions": {
          "calcs": [
            "last"
          ],
          "fields": "",
          "values": false
        },
        "showThresholdLabels": false,
        "showThresholdMarkers": true,
        "text": {}
      },
      "pluginVersion": "9.3.2",
      "targets": [
        {
          "datasource": {
            "type": "prometheus",
            "uid": ""
          },
          "exemplar": true,
          "expr": "pve_disk_usage_bytes{instance=\"$instance\", id=~\"storage/.+\"} / pve_disk_size_bytes * on (id, instance) group_left(storage) pve_storage_info",
          "format": "time_series",
          "instant": true,
          "interval": "",
          "intervalFactor": 1,
          "legendFormat": "{{storage}}",
          "refId": "A"
        }
      ],
      "title": "Storage usage",
      "type": "gauge"
    },
    {
      "datasource": {
        "type": "prometheus",
        "uid": ""
      },
      "description": "",
      "fieldConfig": {
        "defaults": {
          "color": {
            "mode": "palette-classic"
          },
          "links": [],
          "mappings": [],
          "min": 0,
          "thresholds": {
            "mode": "absolute",
            "steps": [
              {
                "color": "green",
                "value": null
              },
              {
                "color": "red",
                "value": 80
              }
            ]
          },
          "unit": "bytes"
        },
        "overrides": []
      },
      "gridPos": {
        "h": 11,
        "w": 4,
        "x": 3,
        "y": 24
      },
      "id": 15,
      "links": [],
      "options": {
        "displayMode": "gradient",
        "minVizHeight": 10,
        "minVizWidth": 0,
        "orientation": "vertical",
        "reduceOptions": {
          "calcs": [
            "lastNotNull"
          ],
          "fields": "",
          "values": true
        },
        "showUnfilled": false,
        "text": {
          "titleSize": 20
        }
      },
      "pluginVersion": "9.3.2",
      "targets": [
        {
          "datasource": {
            "type": "prometheus",
            "uid": ""
          },
          "editorMode": "code",
          "exemplar": false,
          "expr": "pve_disk_size_bytes{instance=\"$instance\", id=~\"storage/.+\"} * on (id, instance) group_left(storage) pve_storage_info",
          "format": "table",
          "instant": true,
          "interval": "",
          "intervalFactor": 1,
          "legendFormat": "{{storage}}",
          "range": false,
          "refId": "storage size"
        }
      ],
      "title": "Space allocation",
      "transformations": [
        {
          "id": "organize",
          "options": {
            "excludeByName": {
              "Time": false,
              "id": true,
              "instance": true,
              "job": true
            },
            "indexByName": {},
            "renameByName": {}
          }
        }
      ],
      "type": "bargauge"
    },
    {
      "datasource": {
        "type": "prometheus",
        "uid": ""
      },
      "fieldConfig": {
        "defaults": {
          "color": {
            "mode": "palette-classic"
          },
          "custom": {
            "axisCenteredZero": false,
            "axisColorMode": "text",
            "axisLabel": "",
            "axisPlacement": "auto",
            "barAlignment": 0,
            "drawStyle": "line",
            "fillOpacity": 0,
            "gradientMode": "none",
            "hideFrom": {
              "legend": false,
              "tooltip": false,
              "viz": false
            },
            "lineInterpolation": "linear",
            "lineWidth": 2,
            "pointSize": 5,
            "scaleDistribution": {
              "type": "linear"
            },
            "showPoints": "never",
            "spanNulls": false,
            "stacking": {
              "group": "A",
              "mode": "none"
            },
            "thresholdsStyle": {
              "mode": "area"
            }
          },
          "decimals": 1,
          "links": [],
          "mappings": [],
          "max": 1.1,
          "min": 0,
          "thresholds": {
            "mode": "absolute",
            "steps": [
              {
                "color": "transparent",
                "value": null
              },
              {
                "color": "orange",
                "value": 0.75
              },
              {
                "color": "red",
                "value": 0.9
              }
            ]
          },
          "unit": "percentunit"
        },
        "overrides": []
      },
      "gridPos": {
        "h": 11,
        "w": 17,
        "x": 7,
        "y": 24
      },
      "hideTimeOverride": false,
      "id": 9,
      "links": [],
      "options": {
        "legend": {
          "calcs": [
            "lastNotNull"
          ],
          "displayMode": "table",
          "placement": "right",
          "showLegend": true
        },
        "tooltip": {
          "mode": "single",
          "sort": "none"
        }
      },
      "pluginVersion": "9.3.2",
      "targets": [
        {
          "datasource": {
            "type": "prometheus",
            "uid": ""
          },
          "editorMode": "code",
          "expr": "pve_disk_usage_bytes{instance=\"$instance\"} / pve_disk_size_bytes{instance=\"$instance\"} * on (id, instance) group_left(name, type) pve_guest_info{type=\"lxc\"}",
          "format": "time_series",
          "interval": "",
          "intervalFactor": 1,
          "legendFormat": "{{name}} ({{type}})",
          "range": true,
          "refId": "A"
        }
      ],
      "title": "LXC guests Disk usage",
      "type": "timeseries"
    },
    {
      "datasource": {
        "type": "prometheus",
        "uid": ""
      },
      "description": "",
      "fieldConfig": {
        "defaults": {
          "color": {
            "mode": "palette-classic"
          },
          "custom": {
            "axisCenteredZero": false,
            "axisColorMode": "text",
            "axisLabel": "",
            "axisPlacement": "auto",
            "barAlignment": 0,
            "drawStyle": "line",
            "fillOpacity": 0,
            "gradientMode": "none",
            "hideFrom": {
              "legend": false,
              "tooltip": false,
              "viz": false
            },
            "lineInterpolation": "linear",
            "lineWidth": 2,
            "pointSize": 5,
            "scaleDistribution": {
              "type": "linear"
            },
            "showPoints": "never",
            "spanNulls": false,
            "stacking": {
              "group": "A",
              "mode": "none"
            },
            "thresholdsStyle": {
              "mode": "off"
            }
          },
          "decimals": 0,
          "links": [],
          "mappings": [],
          "thresholds": {
            "mode": "absolute",
            "steps": [
              {
                "color": "green",
                "value": null
              },
              {
                "color": "red",
                "value": 80
              }
            ]
          },
          "unit": "Bps"
        },
        "overrides": [
          {
            "matcher": {
              "id": "byRegexp",
              "options": "/RECV/"
            },
            "properties": [
              {
                "id": "custom.transform",
                "value": "negative-Y"
              }
            ]
          }
        ]
      },
      "gridPos": {
        "h": 10,
        "w": 24,
        "x": 0,
        "y": 35
      },
      "id": 13,
      "interval": "",
      "links": [],
      "options": {
        "legend": {
          "calcs": [
            "max",
            "mean",
            "lastNotNull",
            "sum"
          ],
          "displayMode": "table",
          "placement": "right",
          "showLegend": true
        },
        "tooltip": {
          "mode": "single",
          "sort": "none"
        }
      },
      "pluginVersion": "9.3.2",
      "targets": [
        {
          "datasource": {
            "type": "prometheus",
            "uid": ""
          },
          "expr": "(rate(pve_network_receive_bytes{instance=\"$instance\"}[5m]) * on(id, instance) group_left(name, type) pve_guest_info) and on(id, instance) pve_up == 1",
          "format": "time_series",
          "interval": "",
          "intervalFactor": 3,
          "legendFormat": "{{name}} RECV ({{type}})",
          "refId": "A"
        },
        {
          "datasource": {
            "type": "prometheus",
            "uid": ""
          },
          "expr": "(rate(pve_network_transmit_bytes{instance=\"$instance\"}[5m])* on(id, instance) group_left(name, type) pve_guest_info) and on(id, instance) pve_up == 1",
          "format": "time_series",
          "interval": "",
          "intervalFactor": 3,
          "legendFormat": "{{name}} SEND ({{type}})",
          "refId": "B"
        }
      ],
      "title": "Network IO/s",
      "type": "timeseries"
    },
    {
      "datasource": {
        "type": "prometheus",
        "uid": ""
      },
      "description": "",
      "fieldConfig": {
        "defaults": {
          "color": {
            "mode": "palette-classic"
          },
          "custom": {
            "axisCenteredZero": false,
            "axisColorMode": "text",
            "axisLabel": "",
            "axisPlacement": "auto",
            "barAlignment": 0,
            "drawStyle": "line",
            "fillOpacity": 0,
            "gradientMode": "none",
            "hideFrom": {
              "legend": false,
              "tooltip": false,
              "viz": false
            },
            "lineInterpolation": "linear",
            "lineWidth": 2,
            "pointSize": 5,
            "scaleDistribution": {
              "type": "linear"
            },
            "showPoints": "never",
            "spanNulls": false,
            "stacking": {
              "group": "A",
              "mode": "none"
            },
            "thresholdsStyle": {
              "mode": "off"
            }
          },
          "decimals": 0,
          "links": [],
          "mappings": [],
          "min": 0,
          "thresholds": {
            "mode": "absolute",
            "steps": [
              {
                "color": "green",
                "value": null
              },
              {
                "color": "red",
                "value": 80
              }
            ]
          },
          "unit": "Bps"
        },
        "overrides": []
      },
      "gridPos": {
        "h": 8,
        "w": 24,
        "x": 0,
        "y": 45
      },
      "id": 12,
      "interval": "",
      "links": [],
      "options": {
        "legend": {
          "calcs": [
            "max",
            "mean",
            "lastNotNull"
          ],
          "displayMode": "table",
          "placement": "right",
          "showLegend": true
        },
        "tooltip": {
          "mode": "multi",
          "sort": "desc"
        }
      },
      "pluginVersion": "9.3.2",
      "targets": [
        {
          "datasource": {
            "type": "prometheus",
            "uid": ""
          },
          "expr": "((rate(pve_disk_write_bytes{instance=\"$instance\"}[5m]) + rate(pve_disk_read_bytes[5m])) * on(id, instance) group_left(name, type) pve_guest_info) and on(id, instance) pve_up == 1",
          "format": "time_series",
          "interval": "",
          "intervalFactor": 2,
          "legendFormat": "{{name}} ({{type}})",
          "refId": "A"
        }
      ],
      "title": "Disk IO/s",
      "type": "timeseries"
    }
  ],
  "refresh": "10s",
  "schemaVersion": 37,
  "style": "dark",
  "tags": [
    "Proxmox",
    "Prometheus"
  ],
  "templating": {
    "list": [
      {
        "current": {},
        "datasource": {
          "type": "prometheus",
          "uid": ""
        },
        "definition": "label_values(pve_node_info, instance)",
        "hide": 0,
        "includeAll": false,
        "multi": false,
        "name": "instance",
        "options": [],
        "query": {
          "query": "label_values(pve_node_info, instance)",
          "refId": "Prometheus-instance-Variable-Query"
        },
        "refresh": 2,
        "regex": "",
        "skipUrlSync": false,
        "sort": 1,
        "tagValuesQuery": "",
        "tagsQuery": "",
        "type": "query",
        "useTags": false
      }
    ]
  },
  "time": {
    "from": "now-6h",
    "to": "now"
  },
  "timepicker": {
    "refresh_intervals": [
      "5s",
      "10s",
      "30s",
      "1m",
      "5m",
      "15m",
      "30m",
      "1h",
      "2h",
      "1d"
    ],
    "time_options": [
      "5m",
      "15m",
      "1h",
      "6h",
      "12h",
      "24h",
      "2d",
      "7d",
      "30d"
    ]
  },
  "timezone": "",
  "title": "Proxmox via Prometheus",
  "uid": "Dp7Cd57Zza",
  "version": 4,
  "weekStart": ""
}
